\BOOKMARK [0][]{section*.1}{Short\040contents}{}% 1
\BOOKMARK [0][]{chapter*.2}{Abstract}{}% 2
\BOOKMARK [0][]{chapter*.3}{Resumé}{}% 3
\BOOKMARK [0][]{chapter*.4}{Preface}{}% 4
\BOOKMARK [0][]{chapter*.5}{Acknowledgements}{}% 5
\BOOKMARK [0][]{section*.6}{Contents}{}% 6
\BOOKMARK [0][]{chapter.1}{1\040Introduction}{}% 7
\BOOKMARK [1][]{section.1.1}{1.1\040Motivation}{chapter.1}% 8
\BOOKMARK [1][]{section.1.2}{1.2\040Data\040Set}{chapter.1}% 9
\BOOKMARK [1][]{section.1.3}{1.3\040Solution\040Requirements}{chapter.1}% 10
\BOOKMARK [1][]{section.1.4}{1.4\040Goal}{chapter.1}% 11
\BOOKMARK [1][]{section.1.5}{1.5\040Report\040Overview}{chapter.1}% 12
\BOOKMARK [0][]{chapter.2}{2\040Technical\040Background}{}% 13
\BOOKMARK [1][]{section.2.1}{2.1\040Video\040Coding}{chapter.2}% 14
\BOOKMARK [1][]{section.2.2}{2.2\040Related\040Work}{chapter.2}% 15
\BOOKMARK [0][]{chapter.3}{3\040Methodology}{}% 16
\BOOKMARK [1][]{section.3.1}{3.1\040Software}{chapter.3}% 17
\BOOKMARK [1][]{section.3.2}{3.2\040Macroblock\040Transformations}{chapter.3}% 18
\BOOKMARK [1][]{section.3.3}{3.3\040Macroblock\040Experiments}{chapter.3}% 19
\BOOKMARK [1][]{section.3.4}{3.4\040Line\040Transformations}{chapter.3}% 20
\BOOKMARK [1][]{section.3.5}{3.5\040Line\040Experiments}{chapter.3}% 21
\BOOKMARK [1][]{section.3.6}{3.6\040Experiment\040Flow}{chapter.3}% 22
\BOOKMARK [0][]{chapter.4}{4\040Results}{}% 23
\BOOKMARK [1][]{section.4.1}{4.1\040Macroblock\040Experiments}{chapter.4}% 24
\BOOKMARK [1][]{section.4.2}{4.2\040Line\040Experiments}{chapter.4}% 25
\BOOKMARK [1][]{section.4.3}{4.3\040Experiments\040Ranked\040By\040Costs}{chapter.4}% 26
\BOOKMARK [0][]{chapter.5}{5\040Conclusion}{}% 27
\BOOKMARK [1][]{section.5.1}{5.1\040Future\040Work}{chapter.5}% 28
\BOOKMARK [0][]{appendix.A}{A\040Software\040&\040Result\040Data}{}% 29
\BOOKMARK [1][]{section.A.1}{A.1\040Software}{appendix.A}% 30
\BOOKMARK [1][]{section.A.2}{A.2\040Software\040Installation}{appendix.A}% 31
\BOOKMARK [1][]{section.A.3}{A.3\040Result\040Data}{appendix.A}% 32
\BOOKMARK [0][]{appendix.B}{B\040Frames\040With\040Noise\040Artifacts}{}% 33
\BOOKMARK [0][]{section*.52}{Bibliography}{}% 34
