\relax 
\providecommand*{\memsetcounter}[2]{}
\providecommand\HyperFirstAtBeginDocument{\AtBeginDocument}
\HyperFirstAtBeginDocument{\ifx\hyper@anchor\@undefined
\global\let\oldcontentsline\contentsline
\gdef\contentsline#1#2#3#4{\oldcontentsline{#1}{#2}{#3}}
\global\let\oldnewlabel\newlabel
\gdef\newlabel#1#2{\newlabelxx{#1}#2}
\gdef\newlabelxx#1#2#3#4#5#6{\oldnewlabel{#1}{{#2}{#3}}}
\AtEndDocument{\ifx\hyper@anchor\@undefined
\let\contentsline\oldcontentsline
\let\newlabel\oldnewlabel
\fi}
\fi}
\global\let\hyper@last\relax 
\gdef\HyperFirstAtBeginDocument#1{#1}
\providecommand*\HyPL@Entry[1]{}
\@input{prefrontmatter/titlepage.aux}
\HyPL@Entry{0<</S/a>>}
\select@language {english}
\@writefile{toc}{\select@language {english}}
\@writefile{lof}{\select@language {english}}
\@writefile{lot}{\select@language {english}}
\@input{prefrontmatter/colophon.aux}
\HyPL@Entry{2<</S/r>>}
\@writefile{toc}{\contentsline {chapter}{Short contents}{i}{section*.1}}
\@input{frontmatter/Abstract.aux}
\@input{frontmatter/DanishAbstract.aux}
\@input{frontmatter/Preface.aux}
\@input{frontmatter/Acknowledgements.aux}
\@writefile{toc}{\contentsline {chapter}{Contents}{xi}{section*.6}}
\HyPL@Entry{14<</S/D>>}
\@writefile{lof}{\addvspace {10pt}}
\@writefile{lot}{\addvspace {10pt}}
\@writefile{toc}{\contentsline {chapter}{\chapternumberline {1}Introduction}{1}{chapter.1}}
\@writefile{toc}{\contentsline {section}{\numberline {1.1}Motivation}{1}{section.1.1}}
\@writefile{toc}{\contentsline {section}{\numberline {1.2}Data Set}{2}{section.1.2}}
\@writefile{lof}{\contentsline {figure}{\numberline {1.1}{\ignorespaces Angels Share, frame 168. Obvious and line-like.}}{2}{figure.1.1}}
\newlabel{first_data_point}{{\M@TitleReference {1.1}{Angels Share, frame 168. Obvious and line-like.}}{2}{Angels Share, frame 168. Obvious and line-like}{figure.1.1}{}}
\newlabel{first_data_point@cref}{{[figure][1][1]1.1}{2}}
\@writefile{lof}{\contentsline {figure}{\numberline {1.2}{\ignorespaces Borgen error, frame 462. Subtle and block-like.}}{3}{figure.1.2}}
\@writefile{lof}{\contentsline {figure}{\numberline {1.3}{\ignorespaces Borgen error 1, frame 364. Obvious and block-like.}}{3}{figure.1.3}}
\@writefile{lof}{\contentsline {figure}{\numberline {1.4}{\ignorespaces Pusher 3, frame 368. Obvious and both block- and line-like.}}{4}{figure.1.4}}
\@writefile{lof}{\contentsline {figure}{\numberline {1.5}{\ignorespaces Shadow dancer, frame 208. Obvious and both block- and line-like.}}{4}{figure.1.5}}
\newlabel{last_data_point}{{\M@TitleReference {1.5}{Shadow dancer, frame 208. Obvious and both block- and line-like.}}{4}{Shadow dancer, frame 208. Obvious and both block- and line-like}{figure.1.5}{}}
\newlabel{last_data_point@cref}{{[figure][5][1]1.5}{4}}
\@writefile{toc}{\contentsline {section}{\numberline {1.3}Solution Requirements}{5}{section.1.3}}
\@writefile{toc}{\contentsline {section}{\numberline {1.4}Goal}{5}{section.1.4}}
\@writefile{toc}{\contentsline {section}{\numberline {1.5}Report Overview}{6}{section.1.5}}
\@writefile{lof}{\addvspace {10pt}}
\@writefile{lot}{\addvspace {10pt}}
\@writefile{toc}{\contentsline {chapter}{\chapternumberline {2}Technical Background}{7}{chapter.2}}
\@writefile{toc}{\contentsline {section}{\numberline {2.1}Video Coding}{7}{section.2.1}}
\@writefile{toc}{\contentsline {subsection}{Exploitable Properties}{7}{section*.7}}
\@writefile{toc}{\contentsline {subsection}{RGB Color Space}{8}{section*.8}}
\@writefile{lof}{\contentsline {figure}{\numberline {2.1}{\ignorespaces Full RGB image.}}{8}{figure.2.1}}
\@writefile{lof}{\contentsline {figure}{\numberline {2.2}{\ignorespaces R channel.}}{8}{figure.2.2}}
\@writefile{lof}{\contentsline {figure}{\numberline {2.3}{\ignorespaces G channel.}}{8}{figure.2.3}}
\@writefile{lof}{\contentsline {figure}{\numberline {2.4}{\ignorespaces B channel.}}{8}{figure.2.4}}
\newlabel{rgb_planes}{{\M@TitleReference {2.1}{RGB Color Space}}{8}{RGB Color Space\relax }{figure.2.4}{}}
\newlabel{rgb_planes@cref}{{[section][1][2]2.1}{8}}
\citation{jpeg_yuv_rgb}
\@writefile{toc}{\contentsline {subsection}{Y'CbCr Color Space}{9}{section*.9}}
\@writefile{lof}{\contentsline {figure}{\numberline {2.5}{\ignorespaces Full Y'CbCr image.}}{9}{figure.2.5}}
\@writefile{lof}{\contentsline {figure}{\numberline {2.6}{\ignorespaces Y' channel. Cb and Cr are set to -128.}}{9}{figure.2.6}}
\@writefile{lof}{\contentsline {figure}{\numberline {2.7}{\ignorespaces Cb channel. Cr is set to -128, Y' is unchanged.}}{9}{figure.2.7}}
\@writefile{lof}{\contentsline {figure}{\numberline {2.8}{\ignorespaces Cr channel. Cb is set to -128, Y' is unchanged.}}{9}{figure.2.8}}
\newlabel{yuv_planes}{{\M@TitleReference {2.1}{Y'CbCr Color Space}}{9}{Y'CbCr Color Space\relax }{figure.2.8}{}}
\newlabel{yuv_planes@cref}{{[section][1][2]2.1}{9}}
\@writefile{toc}{\contentsline {subsection}{Chroma Subsampling}{10}{section*.10}}
\@writefile{lof}{\contentsline {figure}{\numberline {2.9}{\ignorespaces 4:2:2 subsampling. Y' (top) is unchanged. Cb (bottom left) and Cr (bottom right) are both half the width.}}{11}{figure.2.9}}
\newlabel{subsampling}{{\M@TitleReference {2.9}{4:2:2 subsampling. Y' (top) is unchanged. Cb (bottom left) and Cr (bottom right) are both half the width.}}{11}{4:2:2 subsampling. Y' (top) is unchanged. Cb (bottom left) and Cr (bottom right) are both half the width}{figure.2.9}{}}
\newlabel{subsampling@cref}{{[figure][9][2]2.9}{11}}
\@writefile{toc}{\contentsline {subsection}{DCT, Quantization and Entropy Coding}{12}{section*.11}}
\@writefile{toc}{\contentsline {subsection}{ProRes Codec}{12}{section*.12}}
\citation{899622}
\citation{850446}
\citation{5c800a}
\@writefile{toc}{\contentsline {section}{\numberline {2.2}Related Work}{13}{section.2.2}}
\@writefile{lof}{\addvspace {10pt}}
\@writefile{lot}{\addvspace {10pt}}
\@writefile{toc}{\contentsline {chapter}{\chapternumberline {3}Methodology}{15}{chapter.3}}
\@writefile{toc}{\contentsline {subsection}{General Flow Of The Detection Algorithms}{15}{section*.13}}
\@writefile{lof}{\contentsline {figure}{\numberline {3.1}{\ignorespaces The general flow of the detection algorithms}}{15}{figure.3.1}}
\@writefile{toc}{\contentsline {section}{\numberline {3.1}Software}{16}{section.3.1}}
\@writefile{toc}{\contentsline {subsection}{Programming Style}{16}{section*.14}}
\@writefile{toc}{\contentsline {subsection}{Core Models}{16}{section*.15}}
\@writefile{lof}{\contentsline {figure}{\numberline {3.2}{\ignorespaces Core model hierarchy tree}}{16}{figure.3.2}}
\newlabel{core_model_usage}{{\M@TitleReference {3.1}{Core Models}}{17}{Core model usage\relax }{lstlisting.3.1}{}}
\newlabel{core_model_usage@cref}{{[listing][1][3]3.1}{17}}
\@writefile{lol}{\contentsline {lstlisting}{\numberline {3.1}Core model usage}{17}{lstlisting.3.1}}
\@writefile{toc}{\contentsline {subsection}{Pure Functions}{17}{section*.16}}
\newlabel{pure_python_function}{{\M@TitleReference {3.2}{Pure Functions}}{17}{Pure python function\relax }{lstlisting.3.2}{}}
\newlabel{pure_python_function@cref}{{[listing][2][3]3.2}{17}}
\@writefile{lol}{\contentsline {lstlisting}{\numberline {3.2}Pure python function}{17}{lstlisting.3.2}}
\newlabel{higher_order_function}{{\M@TitleReference {3.3}{Pure Functions}}{18}{Higher order function\relax }{lstlisting.3.3}{}}
\newlabel{higher_order_function@cref}{{[listing][3][3]3.3}{18}}
\@writefile{lol}{\contentsline {lstlisting}{\numberline {3.3}Higher order function}{18}{lstlisting.3.3}}
\newlabel{class_style_functions}{{\M@TitleReference {3.4}{Pure Functions}}{18}{Class-style functions\relax }{lstlisting.3.4}{}}
\newlabel{class_style_functions@cref}{{[listing][4][3]3.4}{18}}
\@writefile{lol}{\contentsline {lstlisting}{\numberline {3.4}Class-style functions}{18}{lstlisting.3.4}}
\@writefile{toc}{\contentsline {subsection}{Composability}{19}{section*.17}}
\newlabel{composable_functions}{{\M@TitleReference {3.5}{Composability}}{19}{Composable functions\relax }{lstlisting.3.5}{}}
\newlabel{composable_functions@cref}{{[listing][5][3]3.5}{19}}
\@writefile{lol}{\contentsline {lstlisting}{\numberline {3.5}Composable functions}{19}{lstlisting.3.5}}
\@writefile{toc}{\contentsline {section}{\numberline {3.2}Macroblock Transformations}{20}{section.3.2}}
\@writefile{lof}{\contentsline {figure}{\numberline {3.3}{\ignorespaces Example input to the transformations. \emph  {borgen\_error1.mov}, y-plane, frame 366.}}{20}{figure.3.3}}
\@writefile{toc}{\contentsline {subsection}{Mean Blocks Transformation}{21}{section*.18}}
\@writefile{lol}{\contentsline {lstlisting}{\numberline {3.6}MeanBlocks}{21}{lstlisting.3.6}}
\@writefile{lof}{\contentsline {figure}{\numberline {3.4}{\ignorespaces Result of the Mean Blocks transformation.}}{21}{figure.3.4}}
\@writefile{toc}{\contentsline {subsection}{Variance Blocks Transformation}{22}{section*.19}}
\@writefile{lol}{\contentsline {lstlisting}{\numberline {3.7}VarianceBlocks}{22}{lstlisting.3.7}}
\@writefile{lof}{\contentsline {figure}{\numberline {3.5}{\ignorespaces Result of the Variance Blocks transformation.}}{22}{figure.3.5}}
\@writefile{toc}{\contentsline {subsection}{Distance To Neighbors Transformation}{23}{section*.20}}
\@writefile{lol}{\contentsline {lstlisting}{\numberline {3.8}DistancetoNeighbors}{23}{lstlisting.3.8}}
\@writefile{toc}{\contentsline {subsection}{Abs Diff To Neighbor Means Transformation}{24}{section*.21}}
\@writefile{lol}{\contentsline {lstlisting}{\numberline {3.9}AbsDiffToNeighborMeans}{24}{lstlisting.3.9}}
\@writefile{lof}{\contentsline {figure}{\numberline {3.6}{\ignorespaces Result of the Abs Diff To Neighbor Means transformation.}}{24}{figure.3.6}}
\@writefile{toc}{\contentsline {subsection}{Abs Diff Of Abs Diff To Neighbor Means Transformation}{25}{section*.22}}
\@writefile{lol}{\contentsline {lstlisting}{\numberline {3.10}AbsDiffOfAbsDiffToNeighborMeans Transformation}{25}{lstlisting.3.10}}
\@writefile{lof}{\contentsline {figure}{\numberline {3.7}{\ignorespaces Result of the Abs Diff Of Abs Diff To Neighbor Means transformation.}}{25}{figure.3.7}}
\@writefile{toc}{\contentsline {subsection}{Sum Of Squared Diff To Neighbor Means Transformation}{26}{section*.23}}
\@writefile{lol}{\contentsline {lstlisting}{\numberline {3.11}SSDiffToNeighborMeans}{26}{lstlisting.3.11}}
\@writefile{lof}{\contentsline {figure}{\numberline {3.8}{\ignorespaces Result of the SS Diff To Neighbor Means transformation.}}{26}{figure.3.8}}
\@writefile{toc}{\contentsline {subsection}{Abs Diff To Neighbor Variances Transformation}{27}{section*.24}}
\@writefile{lol}{\contentsline {lstlisting}{\numberline {3.12}AbsDiffToNeighborVariances}{27}{lstlisting.3.12}}
\@writefile{lof}{\contentsline {figure}{\numberline {3.9}{\ignorespaces Result of the Abs Diff To Neighbor Variances transformation.}}{27}{figure.3.9}}
\@writefile{toc}{\contentsline {subsection}{Abs Diff To Neighbor Borders Transformation}{28}{section*.25}}
\@writefile{lol}{\contentsline {lstlisting}{\numberline {3.13}AbsDiffToNeighborBorders}{28}{lstlisting.3.13}}
\@writefile{lof}{\contentsline {figure}{\numberline {3.10}{\ignorespaces Result of the Abs Diff To Neighbor Borders transformation.}}{28}{figure.3.10}}
\@writefile{toc}{\contentsline {subsection}{Fit Neighbors Transformation}{29}{section*.26}}
\@writefile{lol}{\contentsline {lstlisting}{\numberline {3.14}FitNeighbors}{29}{lstlisting.3.14}}
\@writefile{lof}{\contentsline {figure}{\numberline {3.11}{\ignorespaces Result of the Fit Neighbors transformation.}}{29}{figure.3.11}}
\@writefile{toc}{\contentsline {subsection}{Fit On Neighbors Transformation}{30}{section*.27}}
\@writefile{lol}{\contentsline {lstlisting}{\numberline {3.15}FitOnNeighbors}{30}{lstlisting.3.15}}
\@writefile{lof}{\contentsline {figure}{\numberline {3.12}{\ignorespaces Result of the Fit On Neighbors transformation.}}{30}{figure.3.12}}
\@writefile{toc}{\contentsline {section}{\numberline {3.3}Macroblock Experiments}{31}{section.3.3}}
\@writefile{lol}{\contentsline {lstlisting}{\numberline {3.16}Example Macroblock Experiment}{31}{lstlisting.3.16}}
\@writefile{toc}{\contentsline {section}{\numberline {3.4}Line Transformations}{32}{section.3.4}}
\@writefile{toc}{\contentsline {subsection}{PIL Edges Transformation}{32}{section*.28}}
\@writefile{lof}{\contentsline {figure}{\numberline {3.13}{\ignorespaces Result of the PIL Edges transformation.}}{32}{figure.3.13}}
\@writefile{toc}{\contentsline {subsection}{Abs Diff Of Block Borders Transform}{33}{section*.29}}
\@writefile{lof}{\contentsline {figure}{\numberline {3.14}{\ignorespaces Result of the Abs Diff Of Block Borders.}}{33}{figure.3.14}}
\@writefile{toc}{\contentsline {subsection}{Line Segments Counter}{34}{section*.30}}
\@writefile{lol}{\contentsline {lstlisting}{\numberline {3.17}Line Segment Counting}{34}{lstlisting.3.17}}
\@writefile{toc}{\contentsline {subsection}{Block Border Line Segments Counter}{34}{section*.31}}
\citation{duda1972a}
\@writefile{toc}{\contentsline {subsection}{Hough Transform Discussion}{35}{section*.32}}
\@writefile{toc}{\contentsline {section}{\numberline {3.5}Line Experiments}{35}{section.3.5}}
\@writefile{lol}{\contentsline {lstlisting}{\numberline {3.18}Example Line Experiment}{35}{lstlisting.3.18}}
\citation{6145429}
\citation{6486916}
\@writefile{toc}{\contentsline {section}{\numberline {3.6}Experiment Flow}{36}{section.3.6}}
\@writefile{toc}{\contentsline {subsection}{First Order Of Change}{36}{section*.33}}
\@writefile{lol}{\contentsline {lstlisting}{\numberline {3.19}FirstOrderChanges}{36}{lstlisting.3.19}}
\@writefile{toc}{\contentsline {subsection}{Scene Detection}{36}{section*.34}}
\@writefile{toc}{\contentsline {subsection}{Plots}{37}{section*.35}}
\@writefile{lof}{\contentsline {figure}{\numberline {3.15}{\ignorespaces Plots in the experiment flow.}}{37}{figure.3.15}}
\@writefile{toc}{\contentsline {subsection}{Performance Measurement}{37}{section*.36}}
\@writefile{lol}{\contentsline {lstlisting}{\numberline {3.20}Measure}{37}{lstlisting.3.20}}
\citation{hodge2004a}
\citation{hodge2004a}
\@writefile{lof}{\contentsline {figure}{\numberline {3.16}{\ignorespaces Measurement in the experiment flow.}}{38}{figure.3.16}}
\@writefile{toc}{\contentsline {subsection}{Outlier Detection}{38}{section*.37}}
\@writefile{lol}{\contentsline {lstlisting}{\numberline {3.21}Outliers}{38}{lstlisting.3.21}}
\citation{simanneal}
\@writefile{toc}{\contentsline {subsection}{Simulated Annealing}{39}{section*.38}}
\@writefile{lof}{\contentsline {figure}{\numberline {3.17}{\ignorespaces Simulated Annealing Flow.}}{39}{figure.3.17}}
\@writefile{lol}{\contentsline {lstlisting}{\numberline {3.22}Temperature and proposal functions}{39}{lstlisting.3.22}}
\@writefile{toc}{\contentsline {subsection}{Entire Experiment Flow}{40}{section*.39}}
\@writefile{lof}{\contentsline {figure}{\numberline {3.18}{\ignorespaces The entire experiment flow.}}{40}{figure.3.18}}
\@writefile{lof}{\addvspace {10pt}}
\@writefile{lot}{\addvspace {10pt}}
\@writefile{toc}{\contentsline {chapter}{\chapternumberline {4}Results}{41}{chapter.4}}
\@writefile{toc}{\contentsline {section}{\numberline {4.1}Macroblock Experiments}{41}{section.4.1}}
\@writefile{toc}{\contentsline {subsection}{Mean Blocks Results}{42}{section*.40}}
\@writefile{lof}{\contentsline {figure}{\numberline {4.1}{\ignorespaces Mean Blocks Plots. Targets marked with red squares. Mean and standard deviation within each scene marked with yellow.}}{42}{figure.4.1}}
\@writefile{lof}{\contentsline {figure}{\numberline {4.2}{\ignorespaces Outlier Detection in Mean Blocks, Optimized Q-factor = 2.3}}{43}{figure.4.2}}
\@writefile{toc}{\contentsline {subsection}{Variance Blocks Result}{44}{section*.41}}
\@writefile{lof}{\contentsline {figure}{\numberline {4.3}{\ignorespaces Variance Blocks Plots. Targets marked with red squares. Mean and standard deviation within each scene marked with yellow.}}{44}{figure.4.3}}
\@writefile{lof}{\contentsline {figure}{\numberline {4.4}{\ignorespaces Outlier Detection in Variance Blocks, Optimized Q-factor = 2.6}}{45}{figure.4.4}}
\@writefile{toc}{\contentsline {subsection}{Abs Diff To Neighbor Means Results}{46}{section*.42}}
\@writefile{lof}{\contentsline {figure}{\numberline {4.5}{\ignorespaces Abs Diff To Neighbor Means Plot. Targets marked with red squares. Mean and standard deviation within each scene marked with yellow.}}{46}{figure.4.5}}
\@writefile{lof}{\contentsline {figure}{\numberline {4.6}{\ignorespaces Outlier Detection in Abs Diff To Neighbor Means, Optimized Q-factor = 4.4}}{47}{figure.4.6}}
\@writefile{toc}{\contentsline {subsection}{Abs Diff Of Abs Diff To Neighbor Means Results}{48}{section*.43}}
\@writefile{lof}{\contentsline {figure}{\numberline {4.7}{\ignorespaces Abs Diff Of Abs Diff To Neighbor Means Plot. Targets marked with red squares. Mean and standard deviation within each scene marked with yellow.}}{48}{figure.4.7}}
\@writefile{lof}{\contentsline {figure}{\numberline {4.8}{\ignorespaces Outlier Detection in Abs Diff Of Abs Diff To Neighbor Means, Optimized Q-factor = 4.8}}{49}{figure.4.8}}
\@writefile{toc}{\contentsline {subsection}{Sum Of Squared Diff To Neighbor Means Results}{50}{section*.44}}
\@writefile{lof}{\contentsline {figure}{\numberline {4.9}{\ignorespaces SS Diff To Neighbor Means Plot. Targets marked with red squares. Mean and standard deviation within each scene marked with yellow.}}{50}{figure.4.9}}
\@writefile{lof}{\contentsline {figure}{\numberline {4.10}{\ignorespaces Outlier Detection in SS Diff To Neighbor Means, Optimized Q-factor = 6.4}}{51}{figure.4.10}}
\@writefile{toc}{\contentsline {subsection}{Abs Diff To Neighbor Variances Results}{52}{section*.45}}
\@writefile{lof}{\contentsline {figure}{\numberline {4.11}{\ignorespaces Abs Diff To Neighbor Variances Plot. Targets marked with red squares. Mean and standard deviation within each scene marked with yellow.}}{52}{figure.4.11}}
\@writefile{lof}{\contentsline {figure}{\numberline {4.12}{\ignorespaces Outlier Detection in Abs Diff To Neighbor Variances, Optimized Q-factor = 3.9}}{53}{figure.4.12}}
\@writefile{toc}{\contentsline {subsection}{Abs Diff To Neighbor Borders Results}{54}{section*.46}}
\@writefile{lof}{\contentsline {figure}{\numberline {4.13}{\ignorespaces Abs Diff To Neighbor Borders Plot. Targets marked with red squares. Mean and standard deviation within each scene marked with yellow.}}{54}{figure.4.13}}
\@writefile{lof}{\contentsline {figure}{\numberline {4.14}{\ignorespaces Outlier Detection in Abs Diff To Neighbor Borders, Optimized Q-factor = 2.5}}{55}{figure.4.14}}
\@writefile{toc}{\contentsline {subsection}{Fit Neighbors Results}{56}{section*.47}}
\@writefile{lof}{\contentsline {figure}{\numberline {4.15}{\ignorespaces Fit Neighbors Plot. Targets marked with red squares. Mean and standard deviation within each scene marked with yellow.}}{56}{figure.4.15}}
\@writefile{lof}{\contentsline {figure}{\numberline {4.16}{\ignorespaces Outlier Detection in Fit Neighbors, Optimized Q-factor = 3.9}}{57}{figure.4.16}}
\@writefile{toc}{\contentsline {subsection}{Fit On Neighbors Results}{58}{section*.48}}
\@writefile{lof}{\contentsline {figure}{\numberline {4.17}{\ignorespaces Fit On Neighbors Plot. Targets marked with red squares. Mean and standard deviation within each scene marked with yellow.}}{58}{figure.4.17}}
\@writefile{lof}{\contentsline {figure}{\numberline {4.18}{\ignorespaces Outlier Detection in Fit On Neighbors, Optimized Q-factor = 10.9}}{59}{figure.4.18}}
\@writefile{toc}{\contentsline {section}{\numberline {4.2}Line Experiments}{59}{section.4.2}}
\@writefile{toc}{\contentsline {subsection}{Lines In PIL Edges Results}{60}{section*.49}}
\@writefile{lof}{\contentsline {figure}{\numberline {4.19}{\ignorespaces Lines In PIL Edges Plots. Targets marked with red squares. Mean and standard deviation within each scene marked with yellow.}}{60}{figure.4.19}}
\@writefile{lof}{\contentsline {figure}{\numberline {4.20}{\ignorespaces Outlier Detection in Lines In PIL Edges, Optimized Q-factor = 3.9}}{61}{figure.4.20}}
\@writefile{toc}{\contentsline {subsection}{Block Border Lines in PIL Edges Results}{62}{section*.50}}
\@writefile{lof}{\contentsline {figure}{\numberline {4.21}{\ignorespaces Block Border Lines in PIL Edges Plots. Targets marked with red squares. Mean and standard deviation within each scene marked with yellow.}}{62}{figure.4.21}}
\@writefile{lof}{\contentsline {figure}{\numberline {4.22}{\ignorespaces Outlier Detection in Block Border Lines in PIL Edges, Optimized Q-factor = 6.4}}{63}{figure.4.22}}
\@writefile{toc}{\contentsline {subsection}{Block Border Lines in Abs Diff Of Block Borders Results}{64}{section*.51}}
\@writefile{lof}{\contentsline {figure}{\numberline {4.23}{\ignorespaces Block Border Lines in Abs Diff Of Block Borders Plots. Targets marked with red squares. Mean and standard deviation within each scene marked with yellow.}}{64}{figure.4.23}}
\@writefile{lof}{\contentsline {figure}{\numberline {4.24}{\ignorespaces Outlier Detection in Block Border Lines in Abs Diff Of Block Borders, Optimized Q-factor = 3.1}}{65}{figure.4.24}}
\@writefile{toc}{\contentsline {section}{\numberline {4.3}Experiments Ranked By Costs}{66}{section.4.3}}
\@writefile{lof}{\contentsline {figure}{\numberline {4.25}{\ignorespaces Experiments ranked by their costs.}}{66}{figure.4.25}}
\newlabel{experiment_costs}{{\M@TitleReference {4.25}{Experiments ranked by their costs.}}{66}{Experiments ranked by their costs}{figure.4.25}{}}
\newlabel{experiment_costs@cref}{{[figure][25][4]4.25}{66}}
\@writefile{lof}{\addvspace {10pt}}
\@writefile{lot}{\addvspace {10pt}}
\@writefile{toc}{\contentsline {chapter}{\chapternumberline {5}Conclusion}{67}{chapter.5}}
\@writefile{toc}{\contentsline {section}{\numberline {5.1}Future Work}{67}{section.5.1}}
\@writefile{lof}{\addvspace {10pt}}
\@writefile{lot}{\addvspace {10pt}}
\@writefile{toc}{\contentsline {appendix}{\chapternumberline {A}Software \& Result Data}{69}{appendix.A}}
\@writefile{toc}{\contentsline {section}{\numberline {A.1}Software}{69}{section.A.1}}
\@writefile{toc}{\contentsline {section}{\numberline {A.2}Software Installation}{69}{section.A.2}}
\@writefile{toc}{\contentsline {section}{\numberline {A.3}Result Data}{69}{section.A.3}}
\@writefile{lof}{\addvspace {10pt}}
\@writefile{lot}{\addvspace {10pt}}
\@writefile{toc}{\contentsline {appendix}{\chapternumberline {B}Frames With Noise Artifacts}{71}{appendix.B}}
\@writefile{lof}{\contentsline {figure}{\numberline {B.1}{\ignorespaces Angels Share, frame 168. Obvious and line-like.}}{71}{figure.B.1}}
\@writefile{lof}{\contentsline {figure}{\numberline {B.2}{\ignorespaces Borgen error, frame 462. Subtle and block-like.}}{72}{figure.B.2}}
\@writefile{lof}{\contentsline {figure}{\numberline {B.3}{\ignorespaces Borgen error 1, frame 364. Obvious and block-like.}}{72}{figure.B.3}}
\@writefile{lof}{\contentsline {figure}{\numberline {B.4}{\ignorespaces Borgen error 1, frame 365. Obvious and block-like.}}{73}{figure.B.4}}
\@writefile{lof}{\contentsline {figure}{\numberline {B.5}{\ignorespaces Borgen error 1, frame 366. Obvious and block-like.}}{73}{figure.B.5}}
\@writefile{lof}{\contentsline {figure}{\numberline {B.6}{\ignorespaces Love last 3 years, frame 89. Obvious and line-like.}}{74}{figure.B.6}}
\@writefile{lof}{\contentsline {figure}{\numberline {B.7}{\ignorespaces Pusher 3, frame 368. Obvious and both block- and line-like.}}{74}{figure.B.7}}
\@writefile{lof}{\contentsline {figure}{\numberline {B.8}{\ignorespaces Pusher 3, frame 373. Obvious and both block- and line-like.}}{75}{figure.B.8}}
\@writefile{lof}{\contentsline {figure}{\numberline {B.9}{\ignorespaces Shadow dancer, frame 208. Obvious and both block- and line-like.}}{75}{figure.B.9}}
\@writefile{lof}{\contentsline {figure}{\numberline {B.10}{\ignorespaces Possession, frame 221. Subtle and block-like.}}{76}{figure.B.10}}
\bibstyle{alpha}
\bibdata{bibliography/Bibliography}
\bibcite{duda1972a}{DH72}
\bibcite{5c800a}{FLA11}
\bibcite{jpeg_yuv_rgb}{Gro92}
\bibcite{hodge2004a}{HA04}
\bibcite{6145429}{KCYK12}
\bibcite{6486916}{KCYK13}
\bibcite{simanneal}{KGV83}
\bibcite{850446}{Vla00}
\bibcite{899622}{WBE00}
\@writefile{toc}{\contentsline {chapter}{Bibliography}{77}{section*.52}}
\expandafter\ifx\csname c@todocounter@totc\endcsname\relax\newcounter{todocounter@totc}\fi\setcounter{todocounter@totc}{0}
\memsetcounter{lastsheet}{92}
\memsetcounter{lastpage}{78}
