\relax 
\@setckpt{prefrontmatter/colophon}{
\setcounter{page}{3}
\setcounter{equation}{0}
\setcounter{enumi}{0}
\setcounter{enumii}{0}
\setcounter{enumiii}{0}
\setcounter{enumiv}{0}
\setcounter{footnote}{0}
\setcounter{mpfootnote}{0}
\setcounter{@memmarkcntra}{0}
\setcounter{storedpagenumber}{1}
\setcounter{book}{0}
\setcounter{part}{0}
\setcounter{chapter}{0}
\setcounter{section}{0}
\setcounter{subsection}{0}
\setcounter{subsubsection}{0}
\setcounter{paragraph}{0}
\setcounter{subparagraph}{0}
\setcounter{@ppsavesec}{0}
\setcounter{@ppsaveapp}{0}
\setcounter{vslineno}{0}
\setcounter{poemline}{0}
\setcounter{modulo@vs}{0}
\setcounter{memfvsline}{0}
\setcounter{verse}{0}
\setcounter{chrsinstr}{0}
\setcounter{poem}{0}
\setcounter{newflo@tctr}{4}
\setcounter{@contsubnum}{0}
\setcounter{maxsecnumdepth}{1}
\setcounter{sidefootnote}{0}
\setcounter{pagenote}{0}
\setcounter{pagenoteshadow}{0}
\setcounter{memfbvline}{0}
\setcounter{bvlinectr}{0}
\setcounter{cp@cntr}{0}
\setcounter{ism@mctr}{0}
\setcounter{xsm@mctr}{0}
\setcounter{csm@mctr}{0}
\setcounter{ksm@mctr}{0}
\setcounter{xksm@mctr}{0}
\setcounter{cksm@mctr}{0}
\setcounter{msm@mctr}{0}
\setcounter{xmsm@mctr}{0}
\setcounter{cmsm@mctr}{0}
\setcounter{bsm@mctr}{0}
\setcounter{workm@mctr}{0}
\setcounter{sheetsequence}{3}
\setcounter{lastsheet}{92}
\setcounter{lastpage}{78}
\setcounter{figure}{0}
\setcounter{lofdepth}{1}
\setcounter{table}{0}
\setcounter{lotdepth}{1}
\setcounter{float@type}{16}
\setcounter{algorithm}{0}
\setcounter{ALG@line}{0}
\setcounter{ALG@rem}{0}
\setcounter{ALG@nested}{0}
\setcounter{ALG@Lnr}{2}
\setcounter{ALG@blocknr}{10}
\setcounter{ALG@storecount}{0}
\setcounter{ALG@tmpcounter}{0}
\setcounter{lstnumber}{1}
\setcounter{parentequation}{0}
\setcounter{Item}{0}
\setcounter{Hfootnote}{0}
\setcounter{memhycontfloat}{0}
\setcounter{Hy@AnnotLevel}{0}
\setcounter{bookmark@seq@number}{0}
\setcounter{subfigure}{0}
\setcounter{subtable}{0}
\setcounter{@todonotes@numberoftodonotes}{0}
\setcounter{todocounter}{0}
\setcounter{todocounter@totc}{0}
\setcounter{blindtext}{1}
\setcounter{Blindtext}{5}
\setcounter{blind@countparstart}{0}
\setcounter{blindlist}{0}
\setcounter{blindlistlevel}{0}
\setcounter{blindlist@level}{0}
\setcounter{blind@listcount}{0}
\setcounter{blind@levelcount}{0}
\setcounter{blind@randomcount}{0}
\setcounter{blind@randommax}{0}
\setcounter{blind@pangramcount}{0}
\setcounter{blind@pangrammax}{0}
\setcounter{lstlisting}{0}
\setcounter{section@level}{0}
}
