\relax 
\citation{adams1980hitchhiker}
\citation{adams1980hitchhiker}
\@writefile{lof}{\addvspace {10pt}}
\@writefile{lot}{\addvspace {10pt}}
\@writefile{toc}{\contentsline {chapter}{\chapternumberline {1}Introduction}{1}{chapter.1}}
\@writefile{tdo}{\contentsline {todo}{\#1\nobreakspace {}Make a cake}{1}{section*.8}}
\@writefile{tdo}{\contentsline {todo}{\#2\nobreakspace {}Do it now}{1}{section*.9}}
\@writefile{lof}{\contentsline {figure}{\numberline {1.1}{\ignorespaces This is my special figure. Aliquam ultricies, arcu quis tempor rhoncus, tellus nisl tempus justo, condimentum tempor erat odio ac purus. Integer quis ipsum felis. Aliquam volutpat, leo ac consequat egestas, lectus lacus adipiscing quam, id iaculis dolor quam in erat. Phasellus tempor interdum arcu quis vestibulum.}}{1}{figure.1.1}}
\newlabel{myFigure}{{\M@TitleReference {1.1}{This is my special figure. Aliquam ultricies, arcu quis tempor rhoncus, tellus nisl tempus justo, condimentum tempor erat odio ac purus. Integer quis ipsum felis. Aliquam volutpat, leo ac consequat egestas, lectus lacus adipiscing quam, id iaculis dolor quam in erat. Phasellus tempor interdum arcu quis vestibulum.}}{1}{This is my special figure. Aliquam ultricies, arcu quis tempor rhoncus, tellus nisl tempus justo, condimentum tempor erat odio ac purus. Integer quis ipsum felis. Aliquam volutpat, leo ac consequat egestas, lectus lacus adipiscing quam, id iaculis dolor quam in erat. Phasellus tempor interdum arcu quis vestibulum}{figure.1.1}{}}
\newlabel{myFigure@cref}{{[figure][1][1]1.1}{1}}
\@writefile{lot}{\contentsline {table}{\numberline {1.2}{\ignorespaces This is a caption to the table.}}{2}{table.1.2}}
\newlabel{myTable}{{\M@TitleReference {1.2}{This is a caption to the table.}}{2}{This is a caption to the table}{table.1.2}{}}
\newlabel{myTable@cref}{{[table][2][1]1.2}{2}}
\@writefile{toc}{\contentsline {section}{\numberline {1.1}Torquent Arcu}{2}{section.1.1}}
\newlabel{twoFigures1}{{\M@TitleReference {1.1}{Torquent Arcu}}{2}{Torquent Arcu\relax }{subfigure.1.3.1}{}}
\newlabel{twoFigures1@cref}{{[section][1][1]1.1}{2}}
\newlabel{twoFigures2}{{\M@TitleReference {1.1}{Torquent Arcu}}{2}{Torquent Arcu\relax }{sub.0\c@sub }{}}
\newlabel{twoFigures2@cref}{{[section][1][1]1.1}{2}}
\newlabel{twoFigures}{{\M@TitleReference {1.1}{Torquent Arcu}}{2}{Torquent Arcu\relax }{sub.0\c@sub }{}}
\newlabel{twoFigures@cref}{{[section][1][1]1.1}{2}}
\@writefile{toc}{\contentsline {subsection}{Vestibulum}{2}{section*.10}}
\newlabel{fibonacci}{{\M@TitleReference {1.1}{Vestibulum}}{3}{Fibonacci\relax }{lstlisting.1.1}{}}
\newlabel{fibonacci@cref}{{[listing][1][1]1.1}{3}}
\@writefile{lol}{\contentsline {lstlisting}{\numberline {1.1}Fibonacci}{3}{lstlisting.1.1}}
\@writefile{toc}{\contentsline {section}{\numberline {1.2}Luctus}{3}{section.1.2}}
\@writefile{loa}{\contentsline {algorithm}{\numberline {1}{\ignorespaces Modified mini-batch $K$-means}}{4}{algorithm.1}}
\newlabel{modifiedminibatch}{{\M@TitleReference {1}{Luctus}}{4}{Luctus\relax }{algorithm.1}{}}
\newlabel{modifiedminibatch@cref}{{[algorithm][1][]1}{4}}
\@writefile{tdo}{\contentsline {todo}{Figure: \#3\nobreakspace {}This is some text that is with the todo and in the figure}{4}{ALG@line.18}}
\@writefile{lof}{\contentsline {figure}{\numberline {1.3}{\ignorespaces This is the caption I wrote.}}{4}{figure.1.3}}
\newlabel{fig:label}{{\M@TitleReference {1.3}{This is the caption I wrote.}}{4}{This is the caption I wrote}{figure.1.3}{}}
\newlabel{fig:label@cref}{{[figure][3][1]1.3}{4}}
\@writefile{lof}{\contentsline {figure}{\numberline {1.4}{\ignorespaces Time-memory tradeoff using 128 bit with Hellman and rainbow tables. Dashed line shows $2^{\frac  {2l}{3}}$.}}{5}{figure.1.4}}
\newlabel{timeMemoryTradeOff}{{\M@TitleReference {1.4}{Time-memory tradeoff using 128 bit with Hellman and rainbow tables. Dashed line shows $2^{\frac  {2l}{3}}$.}}{5}{Time-memory tradeoff using 128 bit with Hellman and rainbow tables. Dashed line shows $2^{\frac {2l}{3}}$}{figure.1.4}{}}
\newlabel{timeMemoryTradeOff@cref}{{[figure][4][1]1.4}{5}}
\@writefile{toc}{\contentsline {section}{\numberline {1.3}Sollicitudin vestibulum}{5}{section.1.3}}
\newlabel{Fibonacci2}{{\M@TitleReference {1.2}{Sollicitudin vestibulum}}{6}{Fibonacci2\relax }{lstlisting.1.2}{}}
\newlabel{Fibonacci2@cref}{{[listing][2][1]1.2}{6}}
\@writefile{lol}{\contentsline {lstlisting}{\numberline {1.2}Fibonacci2}{6}{lstlisting.1.2}}
\@setckpt{chapters/Introduction}{
\setcounter{page}{7}
\setcounter{equation}{0}
\setcounter{enumi}{0}
\setcounter{enumii}{0}
\setcounter{enumiii}{0}
\setcounter{enumiv}{0}
\setcounter{footnote}{0}
\setcounter{mpfootnote}{0}
\setcounter{@memmarkcntra}{0}
\setcounter{storedpagenumber}{1}
\setcounter{book}{0}
\setcounter{part}{0}
\setcounter{chapter}{1}
\setcounter{section}{3}
\setcounter{subsection}{0}
\setcounter{subsubsection}{0}
\setcounter{paragraph}{0}
\setcounter{subparagraph}{0}
\setcounter{@ppsavesec}{0}
\setcounter{@ppsaveapp}{0}
\setcounter{vslineno}{0}
\setcounter{poemline}{0}
\setcounter{modulo@vs}{0}
\setcounter{memfvsline}{0}
\setcounter{verse}{0}
\setcounter{chrsinstr}{0}
\setcounter{poem}{0}
\setcounter{newflo@tctr}{4}
\setcounter{@contsubnum}{0}
\setcounter{maxsecnumdepth}{1}
\setcounter{sidefootnote}{0}
\setcounter{pagenote}{0}
\setcounter{pagenoteshadow}{0}
\setcounter{memfbvline}{0}
\setcounter{bvlinectr}{0}
\setcounter{cp@cntr}{0}
\setcounter{ism@mctr}{0}
\setcounter{xsm@mctr}{0}
\setcounter{csm@mctr}{0}
\setcounter{ksm@mctr}{0}
\setcounter{xksm@mctr}{0}
\setcounter{cksm@mctr}{0}
\setcounter{msm@mctr}{0}
\setcounter{xmsm@mctr}{0}
\setcounter{cmsm@mctr}{0}
\setcounter{bsm@mctr}{0}
\setcounter{workm@mctr}{0}
\setcounter{sheetsequence}{21}
\setcounter{lastsheet}{34}
\setcounter{lastpage}{20}
\setcounter{figure}{4}
\setcounter{lofdepth}{1}
\setcounter{table}{4}
\setcounter{lotdepth}{1}
\setcounter{float@type}{16}
\setcounter{algorithm}{1}
\setcounter{ALG@line}{18}
\setcounter{ALG@rem}{0}
\setcounter{ALG@nested}{0}
\setcounter{ALG@Lnr}{2}
\setcounter{ALG@blocknr}{10}
\setcounter{ALG@storecount}{0}
\setcounter{ALG@tmpcounter}{0}
\setcounter{lstnumber}{15}
\setcounter{parentequation}{0}
\setcounter{Item}{0}
\setcounter{Hfootnote}{0}
\setcounter{memhycontfloat}{0}
\setcounter{Hy@AnnotLevel}{0}
\setcounter{bookmark@seq@number}{10}
\setcounter{subfigure}{0}
\setcounter{subtable}{0}
\setcounter{@todonotes@numberoftodonotes}{2}
\setcounter{todocounter}{3}
\setcounter{todocounter@totc}{3}
\setcounter{blindtext}{1}
\setcounter{Blindtext}{5}
\setcounter{blind@countparstart}{0}
\setcounter{blindlist}{0}
\setcounter{blindlistlevel}{0}
\setcounter{blindlist@level}{0}
\setcounter{blind@listcount}{0}
\setcounter{blind@levelcount}{0}
\setcounter{blind@randomcount}{0}
\setcounter{blind@randommax}{0}
\setcounter{blind@pangramcount}{0}
\setcounter{blind@pangrammax}{0}
\setcounter{lstlisting}{2}
\setcounter{section@level}{1}
\setcounter{oldtocdepth}{1}
}
