\relax 
\@writefile{lof}{\addvspace {10pt}}
\@writefile{lot}{\addvspace {10pt}}
\@writefile{toc}{\contentsline {chapter}{\chapternumberline {2}Long chapter title with π, very long title}{7}{chapter.2}}
\@writefile{lof}{\contentsline {figure}{\numberline {2.1}{\ignorespaces Attack against the goal ``$B$ weakly authenticates $S$ on $KAB$''.}}{8}{figure.2.1}}
\newlabel{whitnessRequest}{{\M@TitleReference {2.1}{Attack against the goal ``$B$ weakly authenticates $S$ on $KAB$''.}}{8}{Attack against the goal ``$B$ weakly authenticates $S$ on $KAB$''}{figure.2.1}{}}
\newlabel{whitnessRequest@cref}{{[figure][1][2]2.1}{8}}
\@writefile{lof}{\contentsline {figure}{\numberline {2.2}{\ignorespaces Initial topology of sensor network. $r_n$ is a regular node, $u$ is the user. Edges represent how the nodes know each other.}}{8}{figure.2.2}}
\newlabel{topology}{{\M@TitleReference {2.2}{Initial topology of sensor network. $r_n$ is a regular node, $u$ is the user. Edges represent how the nodes know each other.}}{8}{Initial topology of sensor network. $r_n$ is a regular node, $u$ is the user. Edges represent how the nodes know each other}{figure.2.2}{}}
\newlabel{topology@cref}{{[figure][2][2]2.2}{8}}
\@writefile{lof}{\contentsline {figure}{\numberline {2.3}{\ignorespaces Objects in the intermediate network graph.}}{9}{figure.2.3}}
\newlabel{network-objects}{{\M@TitleReference {2.3}{Objects in the intermediate network graph.}}{9}{Objects in the intermediate network graph}{figure.2.3}{}}
\newlabel{network-objects@cref}{{[figure][3][2]2.3}{9}}
\@setckpt{chapters/LongTitle}{
\setcounter{page}{10}
\setcounter{equation}{0}
\setcounter{enumi}{0}
\setcounter{enumii}{0}
\setcounter{enumiii}{0}
\setcounter{enumiv}{0}
\setcounter{footnote}{0}
\setcounter{mpfootnote}{0}
\setcounter{@memmarkcntra}{-1}
\setcounter{storedpagenumber}{1}
\setcounter{book}{0}
\setcounter{part}{0}
\setcounter{chapter}{2}
\setcounter{section}{0}
\setcounter{subsection}{0}
\setcounter{subsubsection}{0}
\setcounter{paragraph}{0}
\setcounter{subparagraph}{0}
\setcounter{@ppsavesec}{0}
\setcounter{@ppsaveapp}{0}
\setcounter{vslineno}{0}
\setcounter{poemline}{0}
\setcounter{modulo@vs}{0}
\setcounter{memfvsline}{0}
\setcounter{verse}{0}
\setcounter{chrsinstr}{0}
\setcounter{poem}{0}
\setcounter{newflo@tctr}{4}
\setcounter{@contsubnum}{0}
\setcounter{maxsecnumdepth}{1}
\setcounter{sidefootnote}{0}
\setcounter{pagenote}{0}
\setcounter{pagenoteshadow}{0}
\setcounter{memfbvline}{0}
\setcounter{bvlinectr}{0}
\setcounter{cp@cntr}{0}
\setcounter{ism@mctr}{0}
\setcounter{xsm@mctr}{0}
\setcounter{csm@mctr}{0}
\setcounter{ksm@mctr}{0}
\setcounter{xksm@mctr}{0}
\setcounter{cksm@mctr}{0}
\setcounter{msm@mctr}{0}
\setcounter{xmsm@mctr}{0}
\setcounter{cmsm@mctr}{0}
\setcounter{bsm@mctr}{0}
\setcounter{workm@mctr}{0}
\setcounter{sheetsequence}{24}
\setcounter{lastsheet}{34}
\setcounter{lastpage}{20}
\setcounter{figure}{3}
\setcounter{lofdepth}{1}
\setcounter{table}{3}
\setcounter{lotdepth}{1}
\setcounter{float@type}{16}
\setcounter{algorithm}{1}
\setcounter{ALG@line}{18}
\setcounter{ALG@rem}{0}
\setcounter{ALG@nested}{0}
\setcounter{ALG@Lnr}{2}
\setcounter{ALG@blocknr}{10}
\setcounter{ALG@storecount}{0}
\setcounter{ALG@tmpcounter}{0}
\setcounter{lstnumber}{15}
\setcounter{parentequation}{0}
\setcounter{Item}{0}
\setcounter{Hfootnote}{0}
\setcounter{memhycontfloat}{0}
\setcounter{Hy@AnnotLevel}{0}
\setcounter{bookmark@seq@number}{11}
\setcounter{subfigure}{0}
\setcounter{subtable}{0}
\setcounter{@todonotes@numberoftodonotes}{2}
\setcounter{todocounter}{3}
\setcounter{todocounter@totc}{3}
\setcounter{blindtext}{1}
\setcounter{Blindtext}{5}
\setcounter{blind@countparstart}{0}
\setcounter{blindlist}{0}
\setcounter{blindlistlevel}{0}
\setcounter{blindlist@level}{0}
\setcounter{blind@listcount}{0}
\setcounter{blind@levelcount}{0}
\setcounter{blind@randomcount}{0}
\setcounter{blind@randommax}{0}
\setcounter{blind@pangramcount}{0}
\setcounter{blind@pangrammax}{0}
\setcounter{lstlisting}{0}
\setcounter{section@level}{1}
\setcounter{oldtocdepth}{1}
}
